EESchema Schematic File Version 4
EELAYER 30 0
EELAYER END
$Descr A4 11693 8268
encoding utf-8
Sheet 1 2
Title ""
Date ""
Rev ""
Comp ""
Comment1 ""
Comment2 ""
Comment3 ""
Comment4 ""
$EndDescr
$Comp
L Connector:AudioJack2_SwitchT J?
U 1 1 606BAC4D
P 7200 1950
F 0 "J?" H 7232 2275 50  0000 C CNN
F 1 "Микропереключатель_MSW-11" H 7232 2184 50  0000 C CNN
F 2 "" H 7200 1950 50  0001 C CNN
F 3 "~" H 7200 1950 50  0001 C CNN
	1    7200 1950
	1    0    0    -1  
$EndComp
$Comp
L Connector:AudioJack2_SwitchT J?
U 1 1 606BC864
P 7200 2700
F 0 "J?" H 7232 3025 50  0000 C CNN
F 1 "Микропереключатель_MSW-11" H 7232 2934 50  0000 C CNN
F 2 "" H 7200 2700 50  0001 C CNN
F 3 "~" H 7200 2700 50  0001 C CNN
	1    7200 2700
	1    0    0    -1  
$EndComp
$Comp
L Connector:AudioJack2_SwitchT J?
U 1 1 606BCD60
P 7200 3500
F 0 "J?" H 7232 3825 50  0000 C CNN
F 1 "Микропереключатель_MSW-11" H 7232 3734 50  0000 C CNN
F 2 "" H 7200 3500 50  0001 C CNN
F 3 "~" H 7200 3500 50  0001 C CNN
	1    7200 3500
	1    0    0    -1  
$EndComp
$Comp
L Connector:AudioJack2_SwitchT J?
U 1 1 606BD4A0
P 7200 5200
F 0 "J?" H 7232 5525 50  0000 C CNN
F 1 "Микропереключатель_MSW-11" H 7232 5434 50  0000 C CNN
F 2 "" H 7200 5200 50  0001 C CNN
F 3 "~" H 7200 5200 50  0001 C CNN
	1    7200 5200
	1    0    0    -1  
$EndComp
$Comp
L Sensor_Current:A1363xKTTN-1 U?
U 1 1 6074A525
P 4900 4900
F 0 "U?" H 4671 4946 50  0000 R CNN
F 1 "ДатчикХолла_SS496A1" H 4671 4855 50  0000 R CNN
F 2 "Sensor_Current:Allegro_SIP-4" H 5250 4800 50  0001 L CIN
F 3 "http://www.allegromicro.com/~/media/Files/Datasheets/A1363-Datasheet.ashx?la=en" H 4900 4900 50  0001 C CNN
	1    4900 4900
	1    0    0    -1  
$EndComp
$Comp
L Sensor_Current:A1363xKTTN-1 U?
U 1 1 6074C365
P 4900 1500
F 0 "U?" H 4671 1546 50  0000 R CNN
F 1 "ДатчикХолла_SS496A1" H 4671 1455 50  0000 R CNN
F 2 "Sensor_Current:Allegro_SIP-4" H 5250 1400 50  0001 L CIN
F 3 "http://www.allegromicro.com/~/media/Files/Datasheets/A1363-Datasheet.ashx?la=en" H 4900 1500 50  0001 C CNN
	1    4900 1500
	1    0    0    -1  
$EndComp
$Comp
L Sensor_Current:A1363xKTTN-1 U?
U 1 1 6074C7A6
P 4900 2650
F 0 "U?" H 4671 2696 50  0000 R CNN
F 1 "ДатчикХолла_SS496A1" H 4671 2605 50  0000 R CNN
F 2 "Sensor_Current:Allegro_SIP-4" H 5250 2550 50  0001 L CIN
F 3 "http://www.allegromicro.com/~/media/Files/Datasheets/A1363-Datasheet.ashx?la=en" H 4900 2650 50  0001 C CNN
	1    4900 2650
	1    0    0    -1  
$EndComp
$Comp
L Sensor_Current:A1363xKTTN-1 U?
U 1 1 6074D795
P 4900 3750
F 0 "U?" H 4671 3796 50  0000 R CNN
F 1 "ДатчикХолла_SS496A1" H 4671 3705 50  0000 R CNN
F 2 "Sensor_Current:Allegro_SIP-4" H 5250 3650 50  0001 L CIN
F 3 "http://www.allegromicro.com/~/media/Files/Datasheets/A1363-Datasheet.ashx?la=en" H 4900 3750 50  0001 C CNN
	1    4900 3750
	1    0    0    -1  
$EndComp
$Comp
L Connector:AudioJack2_SwitchT J?
U 1 1 607516D6
P 7200 4350
F 0 "J?" H 7232 4675 50  0000 C CNN
F 1 "Микропереключатель_MSW-11" H 7232 4584 50  0000 C CNN
F 2 "" H 7200 4350 50  0001 C CNN
F 3 "~" H 7200 4350 50  0001 C CNN
	1    7200 4350
	1    0    0    -1  
$EndComp
$Sheet
S 1800 6050 1000 1100
U 6075AA97
F0 "rud" 50
F1 "rud.sch" 50
F2 "POT_2" O L 1800 6400 50 
F3 "POT_1" O L 1800 6300 50 
F4 "BUT_1" O L 1800 6550 50 
F5 "TUMB1_S1" O R 2800 6250 50 
F6 "TUMB1_S2" O R 2800 6350 50 
F7 "TUMB2_S1" O R 2800 6550 50 
F8 "TUMB2_S2" O R 2800 6650 50 
F9 "TUMB3_S1" O R 2800 6850 50 
F10 "TUMB3_S2" O R 2800 6950 50 
$EndSheet
$Comp
L MCU_Module:Arduino_Leonardo A?
U 1 1 607688B8
P 1900 2550
F 0 "A?" H 1900 3731 50  0000 C CNN
F 1 "Arduino_Micro" H 1900 3640 50  0000 C CNN
F 2 "" H 1900 2550 50  0001 C CIN
F 3 "https://www.arduino.cc/en/Main/ArduinoBoardLeonardo" H 1900 2550 50  0001 C CNN
	1    1900 2550
	0    1    1    0   
$EndComp
$Comp
L Device:R R?
U 1 1 607E2F1E
P 7550 4450
F 0 "R?" H 7620 4496 50  0000 L CNN
F 1 "10K" H 7620 4405 50  0000 L CNN
F 2 "" V 7480 4450 50  0001 C CNN
F 3 "~" H 7550 4450 50  0001 C CNN
	1    7550 4450
	0    1    1    0   
$EndComp
$Comp
L Device:R R?
U 1 1 607E313D
P 7550 3600
F 0 "R?" H 7620 3646 50  0000 L CNN
F 1 "10K" H 7620 3555 50  0000 L CNN
F 2 "" V 7480 3600 50  0001 C CNN
F 3 "~" H 7550 3600 50  0001 C CNN
	1    7550 3600
	0    1    1    0   
$EndComp
$Comp
L Device:R R?
U 1 1 607E335D
P 7550 2800
F 0 "R?" H 7620 2846 50  0000 L CNN
F 1 "10K" H 7620 2755 50  0000 L CNN
F 2 "" V 7480 2800 50  0001 C CNN
F 3 "~" H 7550 2800 50  0001 C CNN
	1    7550 2800
	0    1    1    0   
$EndComp
$Comp
L Device:R R?
U 1 1 607E36AC
P 7550 2050
F 0 "R?" H 7620 2096 50  0000 L CNN
F 1 "10K" H 7620 2005 50  0000 L CNN
F 2 "" V 7480 2050 50  0001 C CNN
F 3 "~" H 7550 2050 50  0001 C CNN
	1    7550 2050
	0    1    1    0   
$EndComp
$Comp
L Device:R R?
U 1 1 607E3AEC
P 7550 5300
F 0 "R?" H 7620 5346 50  0000 L CNN
F 1 "10K" H 7620 5255 50  0000 L CNN
F 2 "" V 7480 5300 50  0001 C CNN
F 3 "~" H 7550 5300 50  0001 C CNN
	1    7550 5300
	0    1    1    0   
$EndComp
$Comp
L power:GND #PWR0101
U 1 1 609159E7
P 7400 4250
F 0 "#PWR0101" H 7400 4000 50  0001 C CNN
F 1 "GND" H 7405 4077 50  0000 C CNN
F 2 "" H 7400 4250 50  0001 C CNN
F 3 "" H 7400 4250 50  0001 C CNN
	1    7400 4250
	0    -1   -1   0   
$EndComp
$Comp
L power:GND #PWR0102
U 1 1 60916536
P 7400 3400
F 0 "#PWR0102" H 7400 3150 50  0001 C CNN
F 1 "GND" H 7405 3227 50  0000 C CNN
F 2 "" H 7400 3400 50  0001 C CNN
F 3 "" H 7400 3400 50  0001 C CNN
	1    7400 3400
	0    -1   -1   0   
$EndComp
$Comp
L power:GND #PWR0103
U 1 1 6091675A
P 7400 2600
F 0 "#PWR0103" H 7400 2350 50  0001 C CNN
F 1 "GND" V 7405 2472 50  0000 R CNN
F 2 "" H 7400 2600 50  0001 C CNN
F 3 "" H 7400 2600 50  0001 C CNN
	1    7400 2600
	0    -1   -1   0   
$EndComp
$Comp
L power:GND #PWR0104
U 1 1 60916906
P 7400 1850
F 0 "#PWR0104" H 7400 1600 50  0001 C CNN
F 1 "GND" V 7405 1722 50  0000 R CNN
F 2 "" H 7400 1850 50  0001 C CNN
F 3 "" H 7400 1850 50  0001 C CNN
	1    7400 1850
	0    -1   -1   0   
$EndComp
$Comp
L power:+5V #PWR0106
U 1 1 6091A898
P 7700 2050
F 0 "#PWR0106" H 7700 1900 50  0001 C CNN
F 1 "+5V" V 7715 2178 50  0000 L CNN
F 2 "" H 7700 2050 50  0001 C CNN
F 3 "" H 7700 2050 50  0001 C CNN
	1    7700 2050
	0    1    1    0   
$EndComp
$Comp
L power:+5V #PWR0107
U 1 1 6091BA08
P 7700 2800
F 0 "#PWR0107" H 7700 2650 50  0001 C CNN
F 1 "+5V" V 7715 2928 50  0000 L CNN
F 2 "" H 7700 2800 50  0001 C CNN
F 3 "" H 7700 2800 50  0001 C CNN
	1    7700 2800
	0    1    1    0   
$EndComp
$Comp
L power:+5V #PWR0108
U 1 1 6091C7DD
P 7700 3600
F 0 "#PWR0108" H 7700 3450 50  0001 C CNN
F 1 "+5V" V 7715 3728 50  0000 L CNN
F 2 "" H 7700 3600 50  0001 C CNN
F 3 "" H 7700 3600 50  0001 C CNN
	1    7700 3600
	0    1    1    0   
$EndComp
$Comp
L power:+5V #PWR0109
U 1 1 6091CFAA
P 7700 4450
F 0 "#PWR0109" H 7700 4300 50  0001 C CNN
F 1 "+5V" V 7715 4578 50  0000 L CNN
F 2 "" H 7700 4450 50  0001 C CNN
F 3 "" H 7700 4450 50  0001 C CNN
	1    7700 4450
	0    1    1    0   
$EndComp
$Comp
L power:+5V #PWR0110
U 1 1 6091D739
P 7700 5300
F 0 "#PWR0110" H 7700 5150 50  0001 C CNN
F 1 "+5V" V 7715 5428 50  0000 L CNN
F 2 "" H 7700 5300 50  0001 C CNN
F 3 "" H 7700 5300 50  0001 C CNN
	1    7700 5300
	0    1    1    0   
$EndComp
$Comp
L power:GND #PWR?
U 1 1 6091A93D
P 4900 5200
F 0 "#PWR?" H 4900 4950 50  0001 C CNN
F 1 "GND" H 4905 5027 50  0000 C CNN
F 2 "" H 4900 5200 50  0001 C CNN
F 3 "" H 4900 5200 50  0001 C CNN
	1    4900 5200
	1    0    0    -1  
$EndComp
$Comp
L power:GND #PWR?
U 1 1 6091AF29
P 4900 4050
F 0 "#PWR?" H 4900 3800 50  0001 C CNN
F 1 "GND" H 4905 3877 50  0000 C CNN
F 2 "" H 4900 4050 50  0001 C CNN
F 3 "" H 4900 4050 50  0001 C CNN
	1    4900 4050
	1    0    0    -1  
$EndComp
$Comp
L power:GND #PWR?
U 1 1 6091B3FE
P 4900 2950
F 0 "#PWR?" H 4900 2700 50  0001 C CNN
F 1 "GND" H 4905 2777 50  0000 C CNN
F 2 "" H 4900 2950 50  0001 C CNN
F 3 "" H 4900 2950 50  0001 C CNN
	1    4900 2950
	1    0    0    -1  
$EndComp
$Comp
L power:GND #PWR?
U 1 1 6091B8C1
P 4900 1800
F 0 "#PWR?" H 4900 1550 50  0001 C CNN
F 1 "GND" H 4905 1627 50  0000 C CNN
F 2 "" H 4900 1800 50  0001 C CNN
F 3 "" H 4900 1800 50  0001 C CNN
	1    4900 1800
	1    0    0    -1  
$EndComp
$Comp
L power:+5V #PWR?
U 1 1 60922996
P 4900 1200
F 0 "#PWR?" H 4900 1050 50  0001 C CNN
F 1 "+5V" H 4915 1373 50  0000 C CNN
F 2 "" H 4900 1200 50  0001 C CNN
F 3 "" H 4900 1200 50  0001 C CNN
	1    4900 1200
	1    0    0    -1  
$EndComp
$Comp
L power:+5V #PWR?
U 1 1 60922DC4
P 4900 2350
F 0 "#PWR?" H 4900 2200 50  0001 C CNN
F 1 "+5V" H 4915 2523 50  0000 C CNN
F 2 "" H 4900 2350 50  0001 C CNN
F 3 "" H 4900 2350 50  0001 C CNN
	1    4900 2350
	1    0    0    -1  
$EndComp
$Comp
L power:+5V #PWR?
U 1 1 609239C9
P 4900 3450
F 0 "#PWR?" H 4900 3300 50  0001 C CNN
F 1 "+5V" H 4915 3623 50  0000 C CNN
F 2 "" H 4900 3450 50  0001 C CNN
F 3 "" H 4900 3450 50  0001 C CNN
	1    4900 3450
	1    0    0    -1  
$EndComp
$Comp
L power:+5V #PWR?
U 1 1 60923DF4
P 4900 4600
F 0 "#PWR?" H 4900 4450 50  0001 C CNN
F 1 "+5V" H 4915 4773 50  0000 C CNN
F 2 "" H 4900 4600 50  0001 C CNN
F 3 "" H 4900 4600 50  0001 C CNN
	1    4900 4600
	1    0    0    -1  
$EndComp
Text Label 7800 1950 0    50   ~ 0
D4
Text Label 7800 2700 0    50   ~ 0
D5
Text Label 7800 3500 0    50   ~ 0
D6
Text Label 7800 4350 0    50   ~ 0
D7
Text Label 7750 5200 0    50   ~ 0
D8
$Comp
L power:GND #PWR0105
U 1 1 60916A9C
P 7400 5100
F 0 "#PWR0105" H 7400 4850 50  0001 C CNN
F 1 "GND" H 7405 4927 50  0000 C CNN
F 2 "" H 7400 5100 50  0001 C CNN
F 3 "" H 7400 5100 50  0001 C CNN
	1    7400 5100
	0    -1   -1   0   
$EndComp
Wire Wire Line
	7750 5200 7400 5200
Wire Wire Line
	7800 4350 7400 4350
Wire Wire Line
	7800 3500 7400 3500
Wire Wire Line
	7800 2700 7400 2700
Wire Wire Line
	7800 1950 7400 1950
Text Label 2100 2050 1    50   ~ 0
D4
Text Label 2000 2050 1    50   ~ 0
D5
Text Label 1900 2050 1    50   ~ 0
D6
Text Label 1800 2050 1    50   ~ 0
D7
Text Label 1700 2050 1    50   ~ 0
D8
Text Label 5300 1500 0    50   ~ 0
A0
Text Label 5300 2650 0    50   ~ 0
A1
Text Label 5300 3750 0    50   ~ 0
A2
Text Label 5300 4900 0    50   ~ 0
A3
Text Label 1600 3050 3    50   ~ 0
A3
Text Label 1700 3050 3    50   ~ 0
A2
Text Label 1800 3050 3    50   ~ 0
A1
Text Label 1900 3050 3    50   ~ 0
A0
$Comp
L power:GND #PWR?
U 1 1 60933A7E
P 800 2750
F 0 "#PWR?" H 800 2500 50  0001 C CNN
F 1 "GND" H 805 2577 50  0000 C CNN
F 2 "" H 800 2750 50  0001 C CNN
F 3 "" H 800 2750 50  0001 C CNN
	1    800  2750
	1    0    0    -1  
$EndComp
Wire Wire Line
	800  2750 800  2650
Connection ~ 800  2550
Wire Wire Line
	800  2550 800  2450
Connection ~ 800  2650
Wire Wire Line
	800  2650 800  2550
$Comp
L power:+5V #PWR?
U 1 1 60935793
P 3200 2750
F 0 "#PWR?" H 3200 2600 50  0001 C CNN
F 1 "+5V" H 3215 2923 50  0000 C CNN
F 2 "" H 3200 2750 50  0001 C CNN
F 3 "" H 3200 2750 50  0001 C CNN
	1    3200 2750
	1    0    0    -1  
$EndComp
Wire Wire Line
	3200 2750 2900 2750
Text Notes 3100 2850 0    50   ~ 0
OUTPUT
$EndSCHEMATC
